…
## Looking at Data

``` r
litters_data
```

    ## # A tibble: 49 × 8
    ##    group litter_number   gd0_weight gd18_weight gd_of_…¹ pups_…² pups_…³ pups_…⁴
    ##    <chr> <chr>                <dbl>       <dbl>    <dbl>   <dbl>   <dbl>   <dbl>
    ##  1 Con7  #85                   19.7        34.7       20       3       4       3
    ##  2 Con7  #1/2/95/2             27          42         19       8       0       7
    ##  3 Con7  #5/5/3/83/3-3         26          41.4       19       6       0       5
    ##  4 Con7  #5/4/2/95/2           28.5        44.1       19       5       1       4
    ##  5 Con7  #4/2/95/3-3           NA          NA         20       6       0       6
    ##  6 Con7  #2/2/95/3-2           NA          NA         20       6       0       4
    ##  7 Con7  #1/5/3/83/3-3/2       NA          NA         20       9       0       9
    ##  8 Con8  #3/83/3-3             NA          NA         20       9       1       8
    ##  9 Con8  #2/95/3               NA          NA         20       8       0       8
    ## 10 Con8  #3/5/2/2/95           28.5        NA         20       8       0       8
    ## # … with 39 more rows, and abbreviated variable names ¹​gd_of_birth,
    ## #   ²​pups_born_alive, ³​pups_dead_birth, ⁴​pups_survive
…
``` r
litters_data = read_csv(file = "./data/FAS_litters.csv",
  col_types = "ccddiiii"
)
litters_data
```

    ## # A tibble: 49 × 8
    ##    Group `Litter Number` `GD0 weight` GD18 wei…¹ GD of…² Pups …³ Pups …⁴ Pups …⁵
    ##    <chr> <chr>                  <dbl>      <dbl>   <int>   <int>   <int>   <int>
    ##  1 Con7  #85                     19.7       34.7      20       3       4       3
    ##  2 Con7  #1/2/95/2               27         42        19       8       0       7
    ##  3 Con7  #5/5/3/83/3-3           26         41.4      19       6       0       5
    ##  4 Con7  #5/4/2/95/2             28.5       44.1      19       5       1       4
    ##  5 Con7  #4/2/95/3-3             NA         NA        20       6       0       6
    ##  6 Con7  #2/2/95/3-2             NA         NA        20       6       0       4
    ##  7 Con7  #1/5/3/83/3-3/2         NA         NA        20       9       0       9
    ##  8 Con8  #3/83/3-3               NA         NA        20       9       1       8
    ##  9 Con8  #2/95/3                 NA         NA        20       8       0       8
    ## 10 Con8  #3/5/2/2/95             28.5       NA        20       8       0       8
    ## # … with 39 more rows, and abbreviated variable names ¹​`GD18 weight`,
    ## #   ²​`GD of Birth`, ³​`Pups born alive`, ⁴​`Pups dead @ birth`, ⁵​`Pups survive`
…
``` r
pups_readr
```

    ## # A tibble: 313 × 6
    ##    `Litter Number`   Sex `PD ears` `PD eyes` `PD pivot` `PD walk`
    ##    <chr>           <dbl>     <dbl>     <dbl>      <dbl>     <dbl>
    ##  1 #85                 1         4        13          7        11
    ##  2 #85                 1         4        13          7        12
    ##  3 #1/2/95/2           1         5        13          7         9
    ##  4 #1/2/95/2           1         5        13          8        10
    ##  5 #5/5/3/83/3-3       1         5        13          8        10
    ##  6 #5/5/3/83/3-3       1         5        14          6         9
    ##  7 #5/4/2/95/2         1        NA        14          5         9
    ##  8 #4/2/95/3-3         1         4        13          6         8
    ##  9 #4/2/95/3-3         1         4        13          7         9
    ## 10 #2/2/95/3-2         1         4        NA          8        10
    ## # … with 303 more rows
…
